@startuml
entity users{
  + id (PK)  :  bigint
  --
  name : text
  dob : date
  email : text
  phone : text
--
  created_at  :  timestamp
  updated_at  :  timestamp
  created_by  :  text
  updated_by  :  text

}

entity partners{
  + id (PK)  :  bigint
  --
  name : text (PVR/Inox)
  image : blob
--
  created_at  :  timestamp
  updated_at  :  timestamp
  created_by  :  text
  updated_by  :  text
}

entity site{
  + id (PK)  :  bigint
  address : text
  image : blob
  partner_id(FK) : bigint
  name : text
  image : blob
  city : text
--
  created_at  :  timestamp
  updated_at  :  timestamp
  created_by  :  text
  updated_by  :  text
}

entity theatres{
  + id (PK)  :  bigint
  --
  name : text
  image : blob
  site_id(FK) : bigint
  partner_id(FK) : bigint
--
  created_at  :  timestamp
  updated_at  :  timestamp
  created_by  :  text
  updated_by  :  text
}

entity seats{
  + id (PK)  :  bigint
  --
  type : text (recliner/normal/unused)
  rowNum : text
  columnNum : text
  theatre_id(FK) : bigint
  site_id(FK) : bigint
  partner_id(FK) : bigint
--
  created_at  :  timestamp
  updated_at  :  timestamp
  created_by  :  text
  updated_by  :  text
}

entity show_seat{
  + id (PK)  :  bigint
  --
  show_id(FK) : bigint
  seat_id(FK) : bigint
  status : enum (Booked/Blocked/Available/Reserved/NA)
  seat_type : enum (NORMAL/RECLINER)
  price : double
--
  created_at  :  timestamp
  updated_at  :  timestamp
  created_by  :  text
  updated_by  :  text

}

entity payment{
  + id (PK)  :  bigint
  --
  booking_id(FK) : bigint
  discount_id(FK) : bigint
  amount : double
  status : enum (SUCCESS, FAIL)
  mode : enum (CASH/CARD)
  --
    created_at  :  timestamp
    updated_at  :  timestamp
    created_by  :  text
    updated_by  :  text
}

entity discount{
  + id (PK)  :  bigint
  --
  amount : double
  amount_percent : integer
  description : text
  discount_start_date : timestamp
  discount_end_date : timestamp
  min_payment_amount : double
  --
    created_at  :  timestamp
    updated_at  :  timestamp
    created_by  :  text
    updated_by  :  text
}

entity movies{
  + id (PK)  :  bigint
  --
  name : text
  genres : text
  language : text
--
  created_at  :  timestamp
  updated_at  :  timestamp
  created_by  :  text
  updated_by  :  text
}

entity show{
  + id (PK)  :  bigint
  --
  name : text
  movie_id(FK) : bigint
  theatre_id(FK) : bigint
  site_id(FK) : bigint
  partner_id(FK) : bigint
  start_time : date
  end_time : date
  capacity : int
--
  created_at  :  timestamp
  updated_at  :  timestamp
  created_by  :  text
  updated_by  :  text
}

entity booking {
  + id (PK)  :  bigint
  --
  show_id(FK) : bigint
  user_id(FK) : bigint
  numPersons : smallint
  status : enum (Booked/Blocked/Available)
  seatNum : Json (Array of seatIDs)

  theatre_id(FK) : bigint
  site_id(FK) : bigint
  partner_id(FK) : bigint
  start_time : date
  end_time : date
  capacity : int
--
  created_at  :  timestamp
  updated_at  :  timestamp
  created_by  :  text
  updated_by  :  text
}


partners ||-down-|{ site
site ||-right-|{ theatres
theatres ||-right-|{ seats

show ||-right-|| movies
show ||-down-|| theatres

booking ||-down-|| show
booking ||-right-|| users

show_seat ||-down-|| show
show_seat ||-down-|| seats

booking ||-down-|| payment
payment ||-up-|| discount
@enduml
